0.007450025348, 0.679252212776, 110.771160778803
109.783777418627, 108.435307925493, 107.064799623711
105.578259233897, 103.955281271262, 102.389772270986
100.810686206036, 99.259567121879, 97.677624785942
0.007450025348, 0.679252212776, 110.771160778803
109.783777418627, 108.435307925493, 107.064799623711
105.578259233897, 103.955281271262, 102.389772270986
100.810686206036, 99.259567121879, 97.677624785942
0.092676090341, 0.995410862814, 110.774292377317
166.671771013623, 200.748412923902, 230.425066924930
253.473841761123, 280.425000516455, 312.279905167880
         Inf,          Inf,          Inf
